^E:\UNITBV\ANUL II\LFC\LABORATOR\LABORATOR 1\LABORATOR 1\1.CPP
/c /ZI /nologo /W3 /WX- /diagnostics:classic /sdl /Od /Oy- /D _MBCS /Gm /EHsc /RTC1 /MDd /GS /fp:precise /permissive- /Zc:wchar_t /Zc:forScope /Zc:inline /Fo"DEBUG\\" /Fd"DEBUG\VC141.PDB" /Gd /TP /analyze- E:\UNITBV\ANUL II\LFC\LABORATOR\LABORATOR 1\LABORATOR 1\1.CPP
^E:\UNITBV\ANUL II\LFC\LABORATOR\LABORATOR 1\LABORATOR 1\2.CPP
/c /ZI /nologo /W3 /WX- /diagnostics:classic /sdl /Od /Oy- /D _MBCS /Gm /EHsc /RTC1 /MDd /GS /fp:precise /permissive- /Zc:wchar_t /Zc:forScope /Zc:inline /Fo"DEBUG\\" /Fd"DEBUG\VC141.PDB" /Gd /TP /analyze- E:\UNITBV\ANUL II\LFC\LABORATOR\LABORATOR 1\LABORATOR 1\2.CPP
^E:\UNITBV\ANUL II\LFC\LABORATOR\LABORATOR 1\LABORATOR 1\3.CPP
/c /ZI /nologo /W3 /WX- /diagnostics:classic /sdl /Od /Oy- /D _MBCS /Gm /EHsc /RTC1 /MDd /GS /fp:precise /permissive- /Zc:wchar_t /Zc:forScope /Zc:inline /Fo"DEBUG\\" /Fd"DEBUG\VC141.PDB" /Gd /TP /analyze- E:\UNITBV\ANUL II\LFC\LABORATOR\LABORATOR 1\LABORATOR 1\3.CPP
^E:\UNITBV\ANUL II\LFC\LABORATOR\LABORATOR 1\LABORATOR 1\6.CPP
/c /ZI /nologo /W3 /WX- /diagnostics:classic /sdl /Od /Oy- /D _MBCS /Gm /EHsc /RTC1 /MDd /GS /fp:precise /permissive- /Zc:wchar_t /Zc:forScope /Zc:inline /Fo"DEBUG\\" /Fd"DEBUG\VC141.PDB" /Gd /TP /analyze- E:\UNITBV\ANUL II\LFC\LABORATOR\LABORATOR 1\LABORATOR 1\6.CPP
^E:\UNITBV\ANUL II\LFC\LABORATOR\LABORATOR 1\LABORATOR 1\8.CPP
/c /ZI /nologo /W3 /WX- /diagnostics:classic /sdl /Od /Oy- /D _MBCS /Gm /EHsc /RTC1 /MDd /GS /fp:precise /permissive- /Zc:wchar_t /Zc:forScope /Zc:inline /Fo"DEBUG\\" /Fd"DEBUG\VC141.PDB" /Gd /TP /analyze- E:\UNITBV\ANUL II\LFC\LABORATOR\LABORATOR 1\LABORATOR 1\8.CPP
^E:\UNITBV\ANUL II\LFC\LABORATOR\LABORATOR 1\LABORATOR 1\7.CPP
/c /ZI /nologo /W3 /WX- /diagnostics:classic /sdl /Od /Oy- /D _MBCS /Gm /EHsc /RTC1 /MDd /GS /fp:precise /permissive- /Zc:wchar_t /Zc:forScope /Zc:inline /Fo"DEBUG\\" /Fd"DEBUG\VC141.PDB" /Gd /TP /analyze- E:\UNITBV\ANUL II\LFC\LABORATOR\LABORATOR 1\LABORATOR 1\7.CPP
^E:\UNITBV\ANUL II\LFC\LABORATOR\LABORATOR 1\LABORATOR 1\5.CPP
/c /ZI /nologo /W3 /WX- /diagnostics:classic /sdl /Od /Oy- /D _MBCS /Gm /EHsc /RTC1 /MDd /GS /fp:precise /permissive- /Zc:wchar_t /Zc:forScope /Zc:inline /Fo"DEBUG\\" /Fd"DEBUG\VC141.PDB" /Gd /TP /analyze- E:\UNITBV\ANUL II\LFC\LABORATOR\LABORATOR 1\LABORATOR 1\5.CPP
^E:\UNITBV\ANUL II\LFC\LABORATOR\LABORATOR 1\LABORATOR 1\4.CPP
/c /ZI /JMC /nologo /W3 /WX- /diagnostics:classic /sdl /Od /Oy- /D _MBCS /Gm- /EHsc /RTC1 /MDd /GS /fp:precise /permissive- /Zc:wchar_t /Zc:forScope /Zc:inline /Fo"DEBUG\\" /Fd"DEBUG\VC141.PDB" /Gd /TP /analyze- /FC E:\UNITBV\ANUL II\LFC\LABORATOR\LABORATOR 1\LABORATOR 1\4.CPP
^E:\UNITBV\ANUL II\LFC\LABORATOR\LABORATOR 1\LABORATOR 1\9.CPP
/c /ZI /JMC /nologo /W3 /WX- /diagnostics:classic /sdl /Od /Oy- /D _MBCS /Gm- /EHsc /RTC1 /MDd /GS /fp:precise /permissive- /Zc:wchar_t /Zc:forScope /Zc:inline /Fo"DEBUG\\" /Fd"DEBUG\VC141.PDB" /Gd /TP /analyze- /FC E:\UNITBV\ANUL II\LFC\LABORATOR\LABORATOR 1\LABORATOR 1\9.CPP
